<?xml version="1.0" encoding="UTF-8" standalone="no"?>
<svg width="25px" height="26px" viewBox="0 0 25 26" version="1.1" xmlns="http://www.w3.org/2000/svg" xmlns:xlink="http://www.w3.org/1999/xlink" xmlns:sketch="http://www.bohemiancoding.com/sketch/ns">
    <!-- Generator: Sketch 3.2.2 (9983) - http://www.bohemiancoding.com/sketch -->
    <title>audio</title>
    <desc>Created with Sketch.</desc>
    <defs></defs>
    <g id="Welcome" stroke="none" stroke-width="1" fill="none" fill-rule="evenodd" sketch:type="MSPage">
        <g id="add_material" sketch:type="MSArtboardGroup" transform="translate(-341.000000, -243.000000)" fill="#757C83">
            <g id="window" sketch:type="MSLayerGroup">
                <g id="text_icons" transform="translate(193.000000, 241.000000)" sketch:type="MSShapeGroup">
                    <g id="audio" transform="translate(148.000000, 2.000000)">
                        <path d="M0.535642775,23.1783024 C-0.0399411886,22.1810274 -0.968549984,19.623819 2.83393944,17.4281176 C4.08972228,16.7034877 7.14859762,16.4966814 7.69873472,16.4861795 C8.15354703,16.4861795 8.51343847,16.8375887 8.52192076,17.2782638 C8.53040305,17.7241899 8.17576255,18.0929676 7.72983645,18.1018538 C6.72448312,18.1212419 4.34984584,18.4189299 3.64177659,18.8276955 C0.828079821,20.452256 1.66136383,21.8958609 1.93522062,22.3704652 C2.67075634,23.6436166 4.87938309,23.8027605 6.75800836,22.7174313 C8.68510387,21.6050396 8.93512946,19.8431467 8.94603526,19.0797406 C8.93028244,18.9714905 8.92745501,18.9327143 8.92745501,18.8939381 L8.92745501,3.54543632 C8.92745501,3.15929017 9.20050396,2.8272691 9.57937958,2.75294809 L23.2815093,0.544725257 C23.5190134,0.497870703 23.764192,0.560074163 23.9508023,0.713159301 C24.1374127,0.866648359 24.245259,1.09567019 24.245259,1.33721349 L24.245259,16.6315902 L24.2593961,16.736609 C24.2642432,16.7725578 24.2666667,16.8085065 24.2666667,16.8440514 C24.2666667,18.4577061 23.4778137,20.7967985 21.254242,22.0804517 C18.5718187,23.6282677 15.4180225,23.2081924 14.2244432,21.141341 C13.6484553,20.14447 12.7194426,17.5876654 16.5227398,15.3915602 C17.6274571,14.7541767 20.0053257,14.479512 20.9202013,14.4520456 C21.3758215,14.4278105 21.7381364,14.7897215 21.7518696,15.2348398 C21.765199,15.6811698 21.4145976,16.0531788 20.9686715,16.066912 C19.9435262,16.0976098 18.0164307,16.3948939 17.330173,16.791138 C14.5160724,18.4161024 15.3497603,19.8593035 15.6232132,20.3335039 C16.358345,21.6066552 18.5673756,21.7657991 20.4464048,20.6812778 C21.9489819,19.8136607 22.6324121,18.165269 22.6505885,16.8957529 L22.6368552,16.7935615 C22.6320082,16.7576128 22.6295847,16.721664 22.6295847,16.6857153 L22.6295847,2.31994738 L10.5431293,4.20947845 L10.5536312,18.9076713 C10.559286,18.9464475 10.5621135,18.9848198 10.5621135,19.0239999 C10.5621135,21.1296274 9.44204727,23.0336995 7.56584551,24.1166052 C6.47486145,24.7467182 5.30511326,25.0508689 4.22180366,25.0512728 C2.64167421,25.0512728 1.24411595,24.4041953 0.535642775,23.1783024 Z M11.977822,9.27744477 C11.8752267,8.84363622 12.1438326,8.40861592 12.578449,8.3060206 L20.0889109,6.95976 C20.5239312,6.85595293 20.9585476,7.12617446 21.060739,7.56038692 C21.1633343,7.99419546 20.8943245,8.42921577 20.460112,8.53181108 L12.9496501,9.8784756 C12.8870427,9.89342059 12.8244354,9.89988328 12.7634437,9.89988328 C12.3970895,9.89988328 12.0654724,9.64945377 11.977822,9.27744477 Z"></path>
                    </g>
                </g>
            </g>
        </g>
    </g>
</svg>