<?xml version="1.0" encoding="UTF-8" standalone="no"?>
<svg width="40px" height="40px" viewBox="0 0 40 40" version="1.1" xmlns="http://www.w3.org/2000/svg" xmlns:xlink="http://www.w3.org/1999/xlink" xmlns:sketch="http://www.bohemiancoding.com/sketch/ns">
    <!-- Generator: Sketch 3.2.2 (9983) - http://www.bohemiancoding.com/sketch -->
    <title>header</title>
    <desc>Created with Sketch.</desc>
    <defs></defs>
    <g id="Welcome" stroke="none" stroke-width="1" fill="none" fill-rule="evenodd" sketch:type="MSPage">
        <g id="text_buttons&amp;icons" sketch:type="MSArtboardGroup" transform="translate(-10.000000, -110.000000)">
            <g id="active_buttons" sketch:type="MSLayerGroup" transform="translate(10.000000, 110.000000)">
                <g id="header" sketch:type="MSShapeGroup">
                    <circle id="Oval-22" fill="#55ACEE" cx="20" cy="20" r="20"></circle>
                    <path d="M15.450509,19.0331318 L25.3101344,19.0331318 L25.3101344,11.8636026 C25.3101344,10.9545294 25.4128661,10.5 26.2091183,10.5 C26.5726247,10.5 26.8161032,10.5488385 27.0151662,10.8198123 C27.2142293,11.090786 27.1997672,11.4964774 27.1997672,11.8636031 L27.1997672,28.6464091 C27.1997672,29.5205179 27.0755893,29.9575656 26.3139567,29.9575656 C25.5177045,29.9575656 25.3101344,29.5205174 25.3101344,28.6464086 L25.3101344,21.0785362 L15.450509,21.0785363 L15.450509,28.6464086 C15.450509,29.5205175 15.2566488,29.9575656 14.4603966,29.9575656 C13.698764,29.9575656 13.5,29.5205175 13.5,28.6464087 L13.5,11.8636027 C13.5,11.496477 13.5057628,11.090786 13.7048259,10.8198123 C13.9038889,10.5488385 14.227138,10.5000001 14.5906444,10.5000001 C15.3868967,10.5000001 15.450509,10.9545294 15.450509,11.8636026 L15.450509,19.0331318 Z" id="h" fill="#FFFFFF"></path>
                </g>
            </g>
        </g>
    </g>
</svg>