<?xml version="1.0" encoding="UTF-8" standalone="no"?>
<svg width="28px" height="21px" viewBox="0 0 28 21" version="1.1" xmlns="http://www.w3.org/2000/svg" xmlns:xlink="http://www.w3.org/1999/xlink" xmlns:sketch="http://www.bohemiancoding.com/sketch/ns">
    <!-- Generator: Sketch 3.2.2 (9983) - http://www.bohemiancoding.com/sketch -->
    <title>image</title>
    <desc>Created with Sketch.</desc>
    <defs></defs>
    <g id="Welcome" stroke="none" stroke-width="1" fill="none" fill-rule="evenodd" sketch:type="MSPage">
        <g id="add_material" sketch:type="MSArtboardGroup" transform="translate(-259.000000, -244.000000)" fill="#757C83">
            <g id="window" sketch:type="MSLayerGroup">
                <g id="text_icons" transform="translate(193.000000, 241.000000)" sketch:type="MSShapeGroup">
                    <g id="image" transform="translate(66.000000, 3.000000)">
                        <path d="M12.9279234,13.3448301 L15.7155556,10.8200562 C16.189899,10.3583293 16.9426263,10.3666338 17.4084848,10.8458 C17.4185859,10.8553501 17.4274747,10.8657306 17.4367677,10.875696 L24.8309758,19.2831118 L25.7171717,19.2831118 L25.7171717,2.60488816 L2.28282828,2.60488816 L2.28282828,19.2831118 L17.6363636,19.2831118 C18.0824242,19.2831118 18.4444444,19.6547356 18.4444444,20.1135559 C18.4444444,20.5719611 18.0824242,20.944 17.6363636,20.944 L1.87878788,20.944 C1.21050505,20.944 0.666666667,20.3838655 0.666666667,19.6950121 L0.666666667,2.1929879 C0.666666667,1.50454975 1.21050505,0.944 1.87878788,0.944 L26.1212121,0.944 C26.7894949,0.944 27.3333333,1.50454975 27.3333333,2.1929879 L27.3333333,19.6950121 C27.3333333,20.3838655 26.7894949,20.944 26.1212121,20.944 L24.5769697,20.944 C24.4729164,20.944 24.3734719,20.9237919 24.2821397,20.8869921 L24.2821397,20.8869921 C24.1158993,20.8541081 23.9583405,20.7675615 23.8363636,20.6288465 L16.5171717,12.3073816 L14.0084534,14.5800584 L16.1458586,17.0234735 C16.4456566,17.3639556 16.4193939,17.8892115 16.0884848,18.1964758 C15.9337374,18.3401426 15.740202,18.4107303 15.5470707,18.4107303 C15.3264646,18.4107303 15.1066667,18.318551 14.9474747,18.1375142 L12.3157433,15.1285788 C12.294032,15.1082097 12.2731884,15.0864176 12.2533333,15.0632102 C12.2371648,15.0443667 12.221977,15.024983 12.207766,15.0051251 L8.03636364,10.2358388 L4.51515152,13.4666815 C4.18545455,13.7760219 3.67393939,13.751939 3.37333333,13.4131179 C3.07272727,13.0742967 3.09616162,12.5490408 3.42545455,12.2397004 L7.23393939,8.74062424 C7.68161616,8.28097345 8.45090909,8.28304956 8.92363636,8.76968979 C8.93373737,8.77923989 8.94262626,8.78962045 8.95191919,8.79958577 L12.9279234,13.3448301 L12.9279234,13.3448301 Z M21.260202,10.1395073 C19.68,10.1395073 18.3939394,8.82408387 18.3939394,7.20720925 C18.3939394,5.59033463 19.68,4.2749112 21.260202,4.2749112 C22.840404,4.2749112 24.1260606,5.59033463 24.1260606,7.20720925 C24.1260606,7.83253364 23.9365657,8.42920771 23.5773737,8.93287205 C23.0391919,9.68857616 22.1725253,10.1395073 21.260202,10.1395073 Z M21.260202,5.93538414 C20.5709091,5.93538414 20.010101,6.50589923 20.010101,7.20720925 C20.010101,7.90810405 20.5709091,8.47861914 21.260202,8.47861914 C21.6654545,8.47861914 22.0347475,8.28678656 22.2739394,7.95128715 C22.4282828,7.73454124 22.509899,7.47710358 22.509899,7.20720925 C22.509899,6.50589923 21.9494949,5.93538414 21.260202,5.93538414 L21.260202,5.93538414 Z"></path>
                    </g>
                </g>
            </g>
        </g>
    </g>
</svg>