<?xml version="1.0" encoding="UTF-8" standalone="no"?>
<svg width="40px" height="40px" viewBox="0 0 40 40" version="1.1" xmlns="http://www.w3.org/2000/svg" xmlns:xlink="http://www.w3.org/1999/xlink" xmlns:sketch="http://www.bohemiancoding.com/sketch/ns">
    <!-- Generator: Sketch 3.2.2 (9983) - http://www.bohemiancoding.com/sketch -->
    <title>italic</title>
    <desc>Created with Sketch.</desc>
    <defs></defs>
    <g id="Welcome" stroke="none" stroke-width="1" fill="none" fill-rule="evenodd" sketch:type="MSPage">
        <g id="text_buttons&amp;icons" sketch:type="MSArtboardGroup" transform="translate(-110.000000, -110.000000)">
            <g id="active_buttons" sketch:type="MSLayerGroup" transform="translate(10.000000, 110.000000)">
                <g id="italic" transform="translate(100.000000, 0.000000)" sketch:type="MSShapeGroup">
                    <circle id="Oval-22" fill="#55ACEE" cx="20" cy="20" r="20"></circle>
                    <path d="M21.2240399,12.3789801 L17.2939471,27.2820904 L18.2428446,27.282092 L19.1834486,27.2820916 C19.1834486,27.2820916 20.5036993,22.2985607 21.1638246,19.8067953 L23.1316216,12.3789804 L24.2996432,12.3789806 C24.6210345,12.3789806 24.8991616,12.2588763 25.1340245,12.0186677 C25.3688873,11.7784591 25.3478376,11.084719 25.1129747,10.8508317 C24.8781119,10.6169443 24.5999848,10.5000007 24.2785935,10.5000007 C24.2785935,10.5000007 23.7696127,10.5000015 23.2606319,10.5 L20.0617563,10.5 C19.7280038,10.5 19.4467864,10.6169437 19.2181041,10.850831 C18.9894219,11.0847183 19.0104716,11.7784584 19.2391539,12.018667 C19.4678361,12.2588756 19.7490535,12.3789799 20.082806,12.3789799 L21.2240399,12.3789801 Z M20.221839,27.2820927 C20.5432303,27.2820927 20.8213573,27.3990363 21.0562202,27.6329236 C21.2910831,27.866811 21.3121328,28.5605511 21.0772699,28.8007597 C20.8424071,29.0409683 20.56428,29.1610726 20.2428887,29.1610726 L16.0260515,29.1610719 C15.692299,29.1610719 15.4110816,29.0409676 15.1823993,28.800759 C14.9537171,28.5605504 14.9326674,27.8668103 15.1613496,27.632923 C15.3900319,27.3990356 15.6712493,27.282092 16.0050017,27.282092 L19.2038773,27.282092 C19.7128582,27.2820935 20.221839,27.2820927 20.221839,27.2820927 Z" fill="#FFFFFF"></path>
                </g>
            </g>
        </g>
    </g>
</svg>