<?xml version="1.0" encoding="UTF-8" standalone="no"?>
<svg width="40px" height="40px" viewBox="0 0 40 40" version="1.1" xmlns="http://www.w3.org/2000/svg" xmlns:xlink="http://www.w3.org/1999/xlink" xmlns:sketch="http://www.bohemiancoding.com/sketch/ns">
    <!-- Generator: Sketch 3.2.2 (9983) - http://www.bohemiancoding.com/sketch -->
    <title>quote</title>
    <desc>Created with Sketch.</desc>
    <defs></defs>
    <g id="Welcome" stroke="none" stroke-width="1" fill="none" fill-rule="evenodd" sketch:type="MSPage">
        <g id="text_buttons&amp;icons" sketch:type="MSArtboardGroup" transform="translate(-410.000000, -110.000000)">
            <g id="active_buttons" sketch:type="MSLayerGroup" transform="translate(10.000000, 110.000000)">
                <g id="quote" transform="translate(400.000000, 0.000000)" sketch:type="MSShapeGroup">
                    <path d="M20,40 C31.045695,40 40,31.045695 40,20 C40,8.954305 31.045695,0 20,0 C8.954305,0 0,8.954305 0,20 C0,31.045695 8.954305,40 20,40 Z" id="Oval-22" fill="#55ACEE"></path>
                    <path d="M9.2677255,25.7740445 C8.73669724,26.1921138 8.46759903,26.8456983 8.64682776,27.6494984 C8.7956301,28.316843 9.19944566,28.7515766 9.74127305,28.9206854 C10.0411619,29.0142832 10.3360468,29.0171747 10.6160436,28.9700888 C10.6863927,28.9582585 10.7414311,28.9459494 10.6868303,28.9541812 C16.646133,28.2579785 20.2746116,23.5234818 19.5554018,17.5615336 C18.8482541,13.6539955 15.909444,11.5822543 12.6442766,12.0704735 C9.63235459,12.5798391 7.58804271,15.5011759 8.07051385,18.6257726 C8.45633763,21.3598385 10.6329927,23.3672927 13.2459627,23.4638187 C13.1369404,23.4597913 12.9192936,23.1380041 12.9828271,22.9612845 C12.9307444,23.1061535 12.7048211,23.4048654 12.3648956,23.7447374 C11.6045156,24.5049977 10.5270032,25.2470061 9.88557728,25.4451116 C9.69812428,25.5030068 9.49086409,25.5983713 9.2677255,25.7740445 Z M13.3594794,24.7768397 C13.8093922,24.3001105 14.1249757,23.8579115 14.26037,23.4587996 C14.5235539,22.6829931 14.101372,22.0214959 13.3253808,21.9911166 C11.5046995,21.9198385 9.99432534,20.4436138 9.72442704,18.417057 C9.3870883,16.1013722 10.8124835,13.942725 12.9125449,13.56625 C15.282466,13.1908345 17.3753082,14.7543865 17.8979525,17.8091163 C18.4733976,22.8755765 15.5984865,26.85102 10.7261639,27.4543128 C10.627764,27.4739149 10.6174265,27.476365 10.6058282,27.478432 C10.5213684,27.4934842 10.4322223,27.4925578 10.3688938,27.4716111 C10.3046852,27.4503733 10.2763241,27.4180157 10.245747,27.2726878 C10.203305,27.0709685 10.2346666,26.9902448 10.3387533,26.9034012 C10.3999946,26.8523052 10.4621674,26.8219884 10.5005603,26.8094219 C11.3316468,26.5373973 12.5085004,25.6785404 13.3594794,24.7768397 Z M22.6219177,25.7740445 C22.0908894,26.1921138 21.8217912,26.8456983 22.0010199,27.6494984 C22.1498223,28.316843 22.5536378,28.7515766 23.0954652,28.9206854 C23.3953541,29.0142832 23.690239,29.0171747 23.9702358,28.9700888 C24.0405849,28.9582585 24.0956233,28.9459494 24.0410225,28.9541812 C30.0003252,28.2579785 33.6288038,23.5234818 32.9095939,17.5615336 C32.2024462,13.6539955 29.2636362,11.5822543 25.9984687,12.0704735 C22.9865468,12.5798391 20.9422349,15.5011759 21.424706,18.6257726 C21.8105298,21.3598385 23.9871849,23.3672927 26.6001549,23.4638187 C26.4911326,23.4597913 26.2734858,23.1380041 26.3370192,22.9612845 C26.2849366,23.1061535 26.0590132,23.4048654 25.7190878,23.7447374 C24.9587078,24.5049977 23.8811954,25.2470061 23.2397695,25.4451116 C23.0523165,25.5030068 22.8450563,25.5983713 22.6219177,25.7740445 Z M26.7136716,24.7768397 C27.1635843,24.3001105 27.4791678,23.8579115 27.6145622,23.4587996 C27.8777461,22.6829931 27.4555642,22.0214959 26.679573,21.9911166 C24.8588917,21.9198385 23.3485175,20.4436138 23.0786192,18.417057 C22.7412805,16.1013722 24.1666757,13.942725 26.2667371,13.56625 C28.6366582,13.1908345 30.7295003,14.7543865 31.2521447,17.8091163 C31.8275898,22.8755765 28.9526787,26.85102 24.0803561,27.4543128 C23.9819562,27.4739149 23.9716187,27.476365 23.9600203,27.478432 C23.8755606,27.4934842 23.7864145,27.4925578 23.723086,27.4716111 C23.6588774,27.4503733 23.6305163,27.4180157 23.5999391,27.2726878 C23.5574972,27.0709685 23.5888588,26.9902448 23.6929455,26.9034012 C23.7541868,26.8523052 23.8163596,26.8219884 23.8547525,26.8094219 C24.685839,26.5373973 25.8626925,25.6785404 26.7136716,24.7768397 Z" fill="#FFFFFF"></path>
                </g>
            </g>
        </g>
    </g>
</svg>